{
  "public": {
  	"ga": {
      "account":"UA-59223446-1"
    },
    "latch":{ 
		"secret": {
			"appId": "eBDcNLF9jJDxqaY4g3FZ", 
			"secretKey": "PbZsQJsUtZ4rGHJiuQsYbgNuHXmis3ZFBQKPaM3V"
		}
	} 
  }
}